{
  "serverPort": "PORT",
  "db": {
    "username": "DB_USER",
    "password": "DB_PASS",
    "port"    : "DB_PORT",
    "database": "DB_NAME",
    "host"    : "DB_HOST"
  },
  "auth": {
    "protocol": "AUTH_PROTOCOL",
    "host"    : "AUTH_HOST",
    "port"    : "AUTH_PORT",
    "hash"    : "AUTH_HASH",
    "keyPath" : "AUTH_KEYPATH"
  }
}